<?xml version="1.0" encoding="UTF-8"?>
<session version="1.0">
<refactoring comment="Rename resource &apos;9_Flash_EFR32mg/src/main_test.c&apos; to &apos;test_lighting_functions.c&apos;" description="Rename resource &apos;main_test.c&apos;" flags="7" id="org.eclipse.ltk.core.refactoring.rename.resource" input="src/main_test.c" name="test_lighting_functions.c" stamp="1519413627236" updateReferences="true"/>
</session>